{
  "response": [
    {
      "image": "http://catchup.ninemsn.com.au/img/jump-in/shows/16KidsandCounting1280.jpg", 
      "slug": "show/16kidsandcounting", 
      "title": "16 Kids and Counting"
    }, 
    {
      "image": "http://catchup.ninemsn.com.au/img/jump-in/shows/TheTaste1280.jpg", 
      "slug": "show/thetaste", 
      "title": "\u4e2d\u534e\u53f0\u5317"
    }, 
    {
      "image": "http://catchup.ninemsn.com.au/img/jump-in/shows/Thunderbirds_1280.jpg", 
      "slug": "show/thunderbirds", 
      "title": "Thunderbirds"
    }, 
    {
      "image": "https://catchup.ninemsn.com.au/img/jump-in/shows/ScoobyDoo1280.jpg", 
      "slug": "show/scoobydoomysteryincorporated", 
      "title": "Scooby-Doo! Mystery Incorporated"
    }, 
    {
      "image": "http://catchup.ninemsn.com.au/img/jump-in/shows/ToyHunter1280.jpg", 
      "slug": "show/toyhunter", 
      "title": "Toy Hunter"
    }, 
    {
      "image": "http://catchup.ninemsn.com.au/img/jump-in/shows/Worlds1280.jpg", 
      "slug": "show/worlds", 
      "title": "World's..."
    }, 
    {
      "image": "http://catchup.ninemsn.com.au/img/jump-in/shows/TheOriginals1280.jpg", 
      "slug": "show/theoriginals", 
      "title": "The Originals"
    }
  ]
}
